0 1 
0.00300003 0.999991 
0.00600006 0.999964 
0.00900009 0.999919 
0.0120001 0.999856 
0.0150002 0.999775 
0.0180002 0.999676 
0.0210002 0.999559 
0.0240002 0.999424 
0.0270003 0.999271 
0.0300003 0.9991 
0.0330003 0.998912 
0.0360004 0.998705 
0.0390004 0.99848 
0.0420004 0.998238 
0.0450005 0.997977 
0.0480005 0.997699 
0.0510005 0.997402 
0.0540005 0.997088 
0.0570006 0.996756 
0.0600006 0.996406 
0.0630006 0.996039 
0.0660007 0.995653 
0.0690007 0.99525 
0.0720007 0.994829 
0.0750008 0.994391 
0.0780008 0.993934 
0.0810008 0.99346 
0.0840008 0.992969 
0.0870009 0.992459 
0.0900009 0.991933 
0.0930009 0.991388 
0.096001 0.990826 
0.099001 0.990247 
0.102001 0.98965 
0.105001 0.989035 
0.108001 0.988404 
0.111001 0.987754 
0.114001 0.987088 
0.117001 0.986404 
0.120001 0.985703 
0.123001 0.984985 
0.126001 0.984249 
0.129001 0.983496 
0.132001 0.982727 
0.135001 0.98194 
0.138001 0.981136 
0.141001 0.980315 
0.144001 0.979477 
0.147001 0.978622 
0.150002 0.977751 
0.153002 0.976862 
0.156002 0.975957 
0.159002 0.975035 
0.162002 0.974097 
0.165002 0.973142 
0.168002 0.97217 
0.171002 0.971182 
0.174002 0.970177 
0.177002 0.969156 
0.180002 0.968119 
0.183002 0.967065 
0.186002 0.965995 
0.189002 0.964909 
0.192002 0.963806 
0.195002 0.962688 
0.198002 0.961554 
0.201002 0.960403 
0.204002 0.959237 
0.207002 0.958055 
0.210002 0.956857 
0.213002 0.955644 
0.216002 0.954415 
0.219002 0.95317 
0.222002 0.95191 
0.225002 0.950634 
0.228002 0.949343 
0.231002 0.948037 
0.234002 0.946715 
0.237002 0.945378 
0.240002 0.944026 
0.243002 0.942659 
0.246002 0.941278 
0.249002 0.939881 
0.252003 0.938469 
0.255003 0.937043 
0.258003 0.935602 
0.261003 0.934146 
0.264003 0.932676 
0.267003 0.931191 
0.270003 0.929692 
0.273003 0.928179 
0.276003 0.926652 
0.279003 0.92511 
0.282003 0.923554 
0.285003 0.921985 
0.288003 0.920401 
0.291003 0.918804 
0.294003 0.917193 
0.297003 0.915568 
0.300003 0.91393 
0.303003 0.912278 
0.306003 0.910612 
0.309003 0.908934 
0.312003 0.907242 
0.315003 0.905537 
0.318003 0.903819 
0.321003 0.902088 
0.324003 0.900344 
0.327003 0.898588 
0.330003 0.896818 
0.333003 0.895036 
0.336003 0.893242 
0.339003 0.891435 
0.342003 0.889615 
0.345003 0.887783 
0.348003 0.88594 
0.351004 0.884084 
0.354004 0.882216 
0.357004 0.880336 
0.360004 0.878444 
0.363004 0.876541 
0.366004 0.874626 
0.369004 0.8727 
0.372004 0.870762 
0.375004 0.868813 
0.378004 0.866852 
0.381004 0.864881 
0.384004 0.862898 
0.387004 0.860904 
0.390004 0.8589 
0.393004 0.856885 
0.396004 0.854859 
0.399004 0.852822 
0.402004 0.850775 
0.405004 0.848718 
0.408004 0.84665 
0.411004 0.844573 
0.414004 0.842485 
0.417004 0.840387 
0.420004 0.83828 
0.423004 0.836162 
0.426004 0.834035 
0.429004 0.831899 
0.432004 0.829753 
0.435004 0.827597 
0.438004 0.825432 
0.441004 0.823259 
0.444004 0.821076 
0.447004 0.818884 
0.450005 0.816683 
0.453005 0.814474 
0.456005 0.812256 
0.459005 0.810029 
0.462005 0.807794 
0.465005 0.805551 
0.468005 0.803299 
0.471005 0.801039 
0.474005 0.798771 
0.477005 0.796496 
0.480005 0.794212 
0.483005 0.791921 
0.486005 0.789622 
0.489005 0.787316 
0.492005 0.785002 
0.495005 0.782681 
0.498005 0.780353 
0.501005 0.778018 
0.504005 0.775675 
0.507005 0.773326 
0.510005 0.77097 
0.513005 0.768608 
0.516005 0.766239 
0.519005 0.763863 
0.522005 0.761481 
0.525005 0.759093 
0.528005 0.756699 
0.531005 0.754299 
0.534005 0.751893 
0.537005 0.749481 
0.540005 0.747063 
0.543005 0.74464 
0.546005 0.742211 
0.549005 0.739777 
0.552006 0.737337 
0.555006 0.734892 
0.558006 0.732443 
0.561006 0.729988 
0.564006 0.727528 
0.567006 0.725064 
0.570006 0.722595 
0.573006 0.720121 
0.576006 0.717643 
0.579006 0.715161 
0.582006 0.712674 
0.585006 0.710184 
0.588006 0.707689 
0.591006 0.70519 
0.594006 0.702687 
0.597006 0.700181 
0.600006 0.697671 
0.603006 0.695158 
0.606006 0.692641 
0.609006 0.690121 
0.612006 0.687598 
0.615006 0.685071 
0.618006 0.682542 
0.621006 0.680009 
0.624006 0.677474 
0.627006 0.674936 
0.630006 0.672396 
0.633006 0.669853 
0.636006 0.667308 
0.639006 0.66476 
0.642006 0.66221 
0.645006 0.659658 
0.648006 0.657104 
0.651007 0.654549 
0.654007 0.651991 
0.657007 0.649432 
0.660007 0.646871 
0.663007 0.644308 
0.666007 0.641745 
0.669007 0.63918 
0.672007 0.636613 
0.675007 0.634046 
0.678007 0.631477 
0.681007 0.628908 
0.684007 0.626338 
0.687007 0.623767 
0.690007 0.621195 
0.693007 0.618623 
0.696007 0.616051 
0.699007 0.613478 
0.702007 0.610905 
0.705007 0.608332 
0.708007 0.605758 
0.711007 0.603185 
0.714007 0.600612 
0.717007 0.598039 
0.720007 0.595466 
0.723007 0.592894 
0.726007 0.590322 
0.729007 0.587751 
0.732007 0.585181 
0.735007 0.582611 
0.738007 0.580042 
0.741007 0.577474 
0.744007 0.574907 
0.747007 0.572341 
0.750008 0.569776 
0.753008 0.567213 
0.756008 0.564651 
0.759008 0.56209 
0.762008 0.559531 
0.765008 0.556974 
0.768008 0.554418 
0.771008 0.551864 
0.774008 0.549312 
0.777008 0.546762 
0.780008 0.544214 
0.783008 0.541668 
0.786008 0.539125 
0.789008 0.536583 
0.792008 0.534044 
0.795008 0.531508 
0.798008 0.528974 
0.801008 0.526442 
0.804008 0.523913 
0.807008 0.521387 
0.810008 0.518864 
0.813008 0.516344 
0.816008 0.513827 
0.819008 0.511312 
0.822008 0.508801 
0.825008 0.506294 
0.828008 0.503789 
0.831008 0.501288 
0.834008 0.49879 
0.837008 0.496296 
0.840008 0.493805 
0.843008 0.491318 
0.846008 0.488835 
0.849008 0.486356 
0.852009 0.48388 
0.855009 0.481408 
0.858009 0.478941 
0.861009 0.476477 
0.864009 0.474018 
0.867009 0.471562 
0.870009 0.469111 
0.873009 0.466665 
0.876009 0.464222 
0.879009 0.461785 
0.882009 0.459352 
0.885009 0.456923 
0.888009 0.454499 
0.891009 0.45208 
0.894009 0.449665 
0.897009 0.447256 
0.900009 0.444851 
0.903009 0.442451 
0.906009 0.440056 
0.909009 0.437667 
0.912009 0.435282 
0.915009 0.432903 
0.918009 0.430529 
0.921009 0.42816 
0.924009 0.425797 
0.927009 0.423439 
0.930009 0.421086 
0.933009 0.418739 
0.936009 0.416398 
0.939009 0.414062 
0.942009 0.411732 
0.945009 0.409408 
0.948009 0.40709 
0.95101 0.404777 
0.95401 0.40247 
0.95701 0.400169 
0.96001 0.397875 
0.96301 0.395586 
0.96601 0.393303 
0.96901 0.391027 
0.97201 0.388756 
0.97501 0.386492 
0.97801 0.384234 
0.98101 0.381983 
0.98401 0.379737 
0.98701 0.377499 
0.99001 0.375266 
0.99301 0.37304 
0.99601 0.370821 
0.99901 0.368608 
1.00201 0.366402 
1.00501 0.364203 
1.00801 0.36201 
1.01101 0.359824 
1.01401 0.357644 
1.01701 0.355472 
1.02001 0.353306 
1.02301 0.351147 
1.02601 0.348995 
1.02901 0.34685 
1.03201 0.344712 
1.03501 0.342581 
1.03801 0.340457 
1.04101 0.33834 
1.04401 0.336231 
1.04701 0.334128 
1.05001 0.332033 
1.05301 0.329944 
1.05601 0.327863 
1.05901 0.32579 
1.06201 0.323723 
1.06501 0.321664 
1.06801 0.319612 
1.07101 0.317568 
1.07401 0.315531 
1.07701 0.313501 
1.08001 0.311479 
1.08301 0.309464 
1.08601 0.307457 
1.08901 0.305457 
1.09201 0.303465 
1.09501 0.301481 
1.09801 0.299504 
1.10101 0.297534 
1.10401 0.295573 
1.10701 0.293619 
1.11001 0.291672 
1.11301 0.289733 
1.11601 0.287802 
1.11901 0.285879 
1.12201 0.283964 
1.12501 0.282056 
1.12801 0.280156 
1.13101 0.278264 
1.13401 0.276379 
1.13701 0.274503 
1.14001 0.272634 
1.14301 0.270773 
1.14601 0.26892 
1.14901 0.267075 
1.15201 0.265237 
1.15501 0.263408 
1.15801 0.261586 
1.16101 0.259773 
1.16401 0.257967 
1.16701 0.256169 
1.17001 0.25438 
1.17301 0.252598 
1.17601 0.250824 
1.17901 0.249058 
1.18201 0.2473 
1.18501 0.24555 
1.18801 0.243808 
1.19101 0.242075 
1.19401 0.240349 
1.19701 0.238631 
1.20001 0.236921 
1.20301 0.235219 
1.20601 0.233525 
1.20901 0.231839 
1.21201 0.230162 
1.21501 0.228492 
1.21801 0.22683 
1.22101 0.225176 
1.22401 0.223531 
1.22701 0.221893 
1.23001 0.220264 
1.23301 0.218642 
1.23601 0.217029 
1.23901 0.215423 
1.24201 0.213826 
1.24501 0.212236 
1.24801 0.210655 
1.25101 0.209081 
1.25401 0.207516 
1.25701 0.205958 
1.26001 0.204409 
1.26301 0.202868 
1.26601 0.201334 
1.26901 0.199809 
1.27201 0.198292 
1.27501 0.196782 
1.27801 0.195281 
1.28101 0.193787 
1.28401 0.192302 
1.28701 0.190824 
1.29001 0.189355 
1.29301 0.187893 
1.29601 0.186439 
1.29901 0.184993 
1.30201 0.183556 
1.30501 0.182126 
1.30801 0.180703 
1.31101 0.179289 
1.31401 0.177883 
1.31701 0.176484 
1.32001 0.175094 
1.32301 0.173711 
1.32601 0.172336 
1.32901 0.170968 
1.33201 0.169609 
1.33501 0.168257 
1.33801 0.166913 
1.34101 0.165577 
1.34401 0.164249 
1.34701 0.162928 
1.35001 0.161615 
1.35301 0.16031 
1.35601 0.159012 
1.35901 0.157723 
1.36201 0.15644 
1.36501 0.155166 
1.36801 0.153899 
1.37101 0.152639 
1.37401 0.151387 
1.37701 0.150143 
1.38001 0.148906 
1.38301 0.147677 
1.38601 0.146455 
1.38901 0.145241 
1.39201 0.144034 
1.39501 0.142835 
1.39801 0.141643 
1.40101 0.140459 
1.40401 0.139282 
1.40701 0.138112 
1.41001 0.13695 
1.41301 0.135795 
1.41601 0.134647 
1.41901 0.133507 
1.42201 0.132374 
1.42501 0.131248 
1.42801 0.13013 
1.43101 0.129018 
1.43401 0.127914 
1.43701 0.126817 
1.44001 0.125727 
1.44301 0.124644 
1.44601 0.123569 
1.44901 0.1225 
1.45201 0.121439 
1.45501 0.120384 
1.45801 0.119337 
1.46101 0.118296 
1.46401 0.117263 
1.46701 0.116236 
1.47001 0.115216 
1.47301 0.114204 
1.47601 0.113198 
1.47901 0.112199 
1.48201 0.111206 
1.48501 0.110221 
1.48801 0.109242 
1.49101 0.10827 
1.49401 0.107305 
1.49701 0.106346 
1.50002 0.105394 
1.50302 0.104449 
1.50602 0.103511 
1.50902 0.102579 
1.51202 0.101653 
1.51502 0.100734 
1.51802 0.0998217 
1.52102 0.0989157 
1.52402 0.0980162 
1.52702 0.0971231 
1.53002 0.0962365 
1.53302 0.0953562 
1.53602 0.0944823 
1.53902 0.0936147 
1.54202 0.0927533 
1.54502 0.0918983 
1.54802 0.0910495 
1.55102 0.0902069 
1.55402 0.0893705 
1.55702 0.0885403 
1.56002 0.0877162 
1.56302 0.0868982 
1.56602 0.0860863 
1.56902 0.0852804 
1.57202 0.0844806 
1.57502 0.0836868 
1.57802 0.0828989 
1.58102 0.0821169 
1.58402 0.0813409 
1.58702 0.0805708 
1.59002 0.0798065 
1.59302 0.079048 
1.59602 0.0782954 
1.59902 0.0775485 
1.60202 0.0768073 
1.60502 0.0760719 
1.60802 0.0753421 
1.61102 0.074618 
1.61402 0.0738996 
1.61702 0.0731867 
1.62002 0.0724794 
1.62302 0.0717777 
1.62602 0.0710814 
1.62902 0.0703907 
1.63202 0.0697054 
1.63502 0.0690256 
1.63802 0.0683511 
1.64102 0.067682 
1.64402 0.0670183 
1.64702 0.0663598 
1.65002 0.0657067 
1.65302 0.0650588 
1.65602 0.0644162 
1.65902 0.0637787 
1.66202 0.0631464 
1.66502 0.0625193 
1.66802 0.0618972 
1.67102 0.0612803 
1.67402 0.0606684 
1.67702 0.0600616 
1.68002 0.0594597 
1.68302 0.0588628 
1.68602 0.0582709 
1.68902 0.0576838 
1.69202 0.0571017 
1.69502 0.0565244 
1.69802 0.055952 
1.70102 0.0553843 
1.70402 0.0548214 
1.70702 0.0542633 
1.71002 0.0537099 
1.71302 0.0531611 
1.71602 0.0526171 
1.71902 0.0520776 
1.72202 0.0515428 
1.72502 0.0510125 
1.72802 0.0504868 
1.73102 0.0499656 
1.73402 0.0494489 
1.73702 0.0489366 
1.74002 0.0484288 
1.74302 0.0479254 
1.74602 0.0474264 
1.74902 0.0469317 
1.75202 0.0464413 
1.75502 0.0459553 
1.75802 0.0454735 
1.76102 0.0449959 
1.76402 0.0445226 
1.76702 0.0440535 
1.77002 0.0435885 
1.77302 0.0431276 
1.77602 0.0426709 
1.77902 0.0422182 
1.78202 0.0417696 
1.78502 0.041325 
1.78802 0.0408843 
1.79102 0.0404477 
1.79402 0.040015 
1.79702 0.0395862 
1.80002 0.0391614 
1.80302 0.0387403 
1.80602 0.0383231 
1.80902 0.0379098 
1.81202 0.0375002 
1.81502 0.0370943 
1.81802 0.0366922 
1.82102 0.0362938 
1.82402 0.0358991 
1.82702 0.0355081 
1.83002 0.0351206 
1.83302 0.0347368 
1.83602 0.0343565 
1.83902 0.0339798 
1.84202 0.0336066 
1.84502 0.0332369 
1.84802 0.0328707 
1.85102 0.032508 
1.85402 0.0321487 
1.85702 0.0317927 
1.86002 0.0314402 
1.86302 0.031091 
1.86602 0.0307451 
1.86902 0.0304025 
1.87202 0.0300632 
1.87502 0.0297271 
1.87802 0.0293943 
1.88102 0.0290647 
1.88402 0.0287382 
1.88702 0.0284149 
1.89002 0.0280948 
1.89302 0.0277777 
1.89602 0.0274638 
1.89902 0.0271529 
1.90202 0.026845 
1.90502 0.0265401 
1.90802 0.0262383 
1.91102 0.0259394 
1.91402 0.0256434 
1.91702 0.0253504 
1.92002 0.0250602 
1.92302 0.0247729 
1.92602 0.0244885 
1.92902 0.024207 
1.93202 0.0239282 
1.93502 0.0236522 
1.93802 0.023379 
1.94102 0.0231085 
1.94402 0.0228407 
1.94702 0.0225756 
1.95002 0.0223132 
1.95302 0.0220535 
1.95602 0.0217964 
1.95902 0.0215418 
1.96202 0.0212899 
1.96502 0.0210406 
1.96802 0.0207938 
1.97102 0.0205495 
1.97402 0.0203077 
1.97702 0.0200684 
1.98002 0.0198316 
1.98302 0.0195972 
1.98602 0.0193653 
1.98902 0.0191357 
1.99202 0.0189085 
1.99502 0.0186837 
1.99802 0.0184612 
2.00102 0.018241 
2.00402 0.0180232 
2.00702 0.0178076 
2.01002 0.0175943 
2.01302 0.0173832 
2.01602 0.0171744 
2.01902 0.0169677 
2.02202 0.0167633 
2.02502 0.016561 
2.02802 0.0163608 
2.03102 0.0161628 
2.03402 0.0159669 
2.03702 0.0157731 
2.04002 0.0155813 
2.04302 0.0153916 
2.04602 0.015204 
2.04902 0.0150183 
2.05202 0.0148347 
2.05502 0.014653 
2.05802 0.0144733 
2.06102 0.0142956 
2.06402 0.0141197 
2.06702 0.0139458 
2.07002 0.0137738 
2.07302 0.0136037 
2.07602 0.0134354 
2.07902 0.013269 
2.08202 0.0131044 
2.08502 0.0129416 
2.08802 0.0127805 
2.09102 0.0126213 
2.09402 0.0124638 
2.09702 0.0123081 
2.10002 0.0121541 
2.10302 0.0120018 
2.10602 0.0118512 
2.10902 0.0117023 
2.11202 0.011555 
2.11502 0.0114094 
2.11802 0.0112655 
2.12102 0.0111231 
2.12402 0.0109823 
2.12702 0.0108432 
2.13002 0.0107056 
2.13302 0.0105695 
2.13602 0.010435 
2.13902 0.010302 
2.14202 0.0101706 
2.14502 0.0100406 
2.14802 0.00991213 
2.15102 0.00978511 
2.15402 0.00965954 
2.15702 0.00953542 
2.16002 0.00941272 
2.16302 0.00929143 
2.16602 0.00917154 
2.16902 0.00905304 
2.17202 0.0089359 
2.17502 0.00882012 
2.17802 0.00870569 
2.18102 0.00859258 
2.18402 0.00848079 
2.18702 0.00837031 
2.19002 0.00826111 
2.19302 0.0081532 
2.19602 0.00804655 
2.19902 0.00794115 
2.20202 0.00783699 
2.20502 0.00773405 
2.20802 0.00763233 
2.21102 0.00753182 
2.21402 0.00743249 
2.21702 0.00733434 
2.22002 0.00723736 
2.22302 0.00714153 
2.22602 0.00704685 
2.22902 0.00695329 
2.23202 0.00686085 
2.23502 0.00676952 
2.23802 0.00667929 
2.24102 0.00659014 
2.24402 0.00650206 
2.24702 0.00641504 
2.25002 0.00632907 
2.25302 0.00624415 
2.25602 0.00616025 
2.25902 0.00607737 
2.26202 0.0059955 
2.26502 0.00591462 
2.26802 0.00583473 
2.27102 0.00575582 
2.27402 0.00567787 
2.27702 0.00560087 
2.28002 0.00552482 
2.28302 0.00544971 
2.28602 0.00537552 
2.28902 0.00530224 
2.29202 0.00522987 
2.29502 0.00515839 
2.29802 0.0050878 
2.30102 0.00501808 
2.30402 0.00494924 
2.30702 0.00488124 
2.31002 0.0048141 
2.31302 0.00474779 
2.31602 0.00468231 
2.31902 0.00461765 
2.32202 0.00455381 
2.32502 0.00449076 
2.32802 0.00442851 
2.33102 0.00436704 
2.33402 0.00430635 
2.33702 0.00424642 
2.34002 0.00418726 
2.34302 0.00412884 
2.34602 0.00407117 
2.34902 0.00401422 
2.35202 0.00395801 
2.35502 0.00390251 
2.35802 0.00384772 
2.36102 0.00379363 
2.36402 0.00374023 
2.36702 0.00368752 
2.37002 0.00363549 
2.37302 0.00358412 
2.37602 0.00353342 
2.37902 0.00348337 
2.38202 0.00343397 
2.38502 0.00338521 
2.38802 0.00333708 
2.39102 0.00328958 
2.39402 0.00324269 
2.39702 0.00319642 
2.40002 0.00315075 
2.40302 0.00310567 
2.40602 0.00306119 
2.40902 0.00301729 
2.41202 0.00297396 
2.41502 0.00293121 
2.41802 0.00288901 
2.42102 0.00284737 
2.42402 0.00280629 
2.42702 0.00276574 
2.43002 0.00272573 
2.43302 0.00268625 
2.43602 0.0026473 
2.43902 0.00260887 
2.44202 0.00257094 
2.44502 0.00253352 
2.44802 0.0024966 
2.45102 0.00246018 
2.45402 0.00242424 
2.45702 0.00238879 
2.46002 0.00235381 
2.46302 0.0023193 
2.46602 0.00228526 
2.46902 0.00225167 
2.47202 0.00221854 
2.47502 0.00218586 
2.47802 0.00215362 
2.48102 0.00212181 
2.48402 0.00209044 
2.48702 0.0020595 
2.49002 0.00202898 
2.49302 0.00199887 
2.49602 0.00196918 
2.49902 0.00193989 
2.50203 0.001911 
2.50503 0.00188251 
2.50803 0.00185441 
2.51103 0.00182669 
2.51403 0.00179936 
2.51703 0.00177241 
2.52003 0.00174583 
2.52303 0.00171961 
2.52603 0.00169376 
2.52903 0.00166827 
2.53203 0.00164313 
2.53503 0.00161834 
2.53803 0.0015939 
2.54103 0.0015698 
2.54403 0.00154603 
2.54703 0.0015226 
2.55003 0.00149949 
2.55303 0.00147671 
2.55603 0.00145425 
2.55903 0.0014321 
2.56203 0.00141027 
2.56503 0.00138874 
2.56803 0.00136752 
2.57103 0.0013466 
2.57403 0.00132597 
2.57703 0.00130564 
2.58003 0.0012856 
2.58303 0.00126584 
2.58603 0.00124636 
2.58903 0.00122716 
2.59203 0.00120823 
2.59503 0.00118957 
2.59803 0.00117119 
2.60103 0.00115306 
2.60403 0.00113519 
2.60703 0.00111759 
2.61003 0.00110023 
2.61303 0.00108312 
2.61603 0.00106627 
2.61903 0.00104965 
2.62203 0.00103328 
2.62503 0.00101714 
2.62803 0.00100123 
2.63103 0.000985561 
2.63403 0.000970116 
2.63703 0.000954896 
2.64003 0.000939898 
2.64303 0.000925119 
2.64603 0.000910555 
2.64903 0.000896205 
2.65203 0.000882065 
2.65503 0.000868133 
2.65803 0.000854405 
2.66103 0.000840879 
2.66403 0.000827553 
2.66703 0.000814423 
2.67003 0.000801486 
2.67303 0.000788742 
2.67603 0.000776185 
2.67903 0.000763815 
2.68203 0.000751629 
2.68503 0.000739624 
2.68803 0.000727797 
2.69103 0.000716146 
2.69403 0.00070467 
2.69703 0.000693365 
2.70003 0.000682229 
2.70303 0.000671259 
2.70603 0.000660454 
2.70903 0.000649812 
2.71203 0.000639329 
2.71503 0.000629004 
2.71803 0.000618835 
2.72103 0.000608819 
2.72403 0.000598955 
2.72703 0.00058924 
2.73003 0.000579671 
2.73303 0.000570248 
2.73603 0.000560969 
2.73903 0.00055183 
2.74203 0.00054283 
2.74503 0.000533967 
2.74803 0.00052524 
2.75103 0.000516646 
2.75403 0.000508184 
2.75703 0.000499851 
2.76003 0.000491646 
2.76303 0.000483567 
2.76603 0.000475612 
2.76903 0.000467779 
2.77203 0.000460067 
2.77503 0.000452475 
2.77803 0.000444999 
2.78103 0.000437639 
2.78403 0.000430393 
2.78703 0.00042326 
2.79003 0.000416237 
2.79303 0.000409323 
2.79603 0.000402517 
2.79903 0.000395817 
2.80203 0.000389222 
2.80503 0.000382729 
2.80803 0.000376338 
2.81103 0.000370048 
2.81403 0.000363855 
2.81703 0.00035776 
2.82003 0.000351761 
2.82303 0.000345856 
2.82603 0.000340044 
2.82903 0.000334324 
2.83203 0.000328694 
2.83503 0.000323153 
2.83803 0.000317699 
2.84103 0.000312332 
2.84403 0.000307051 
2.84703 0.000301853 
2.85003 0.000296738 
2.85303 0.000291704 
2.85603 0.00028675 
2.85903 0.000281876 
2.86203 0.000277079 
2.86503 0.000272359 
2.86803 0.000267715 
2.87103 0.000263145 
2.87403 0.000258648 
2.87703 0.000254224 
2.88003 0.000249871 
2.88303 0.000245588 
2.88603 0.000241374 
2.88903 0.000237228 
2.89203 0.000233149 
2.89503 0.000229137 
2.89803 0.000225189 
2.90103 0.000221305 
2.90403 0.000217484 
2.90703 0.000213726 
2.91003 0.000210028 
2.91303 0.000206391 
2.91603 0.000202813 
2.91903 0.000199294 
2.92203 0.000195832 
2.92503 0.000192427 
2.92803 0.000189077 
2.93103 0.000185783 
2.93403 0.000182542 
2.93703 0.000179355 
2.94003 0.000176221 
2.94303 0.000173138 
2.94603 0.000170106 
2.94903 0.000167124 
2.95203 0.000164191 
2.95503 0.000161307 
2.95803 0.000158471 
2.96103 0.000155682 
2.96403 0.000152939 
2.96703 0.000150242 
2.97003 0.000147589 
2.97303 0.000144981 
2.97603 0.000142417 
2.97903 0.000139895 
2.98203 0.000137415 
2.98503 0.000134977 
2.98803 0.00013258 
2.99103 0.000130223 
2.99403 0.000127906 
2.99703 0.000125628 
